{
  "current_page": 1,
  "data": [
    {
      "sender_id": "ACME Key",
      "status": "unblock",
      "company": "",
      "usecase": "",
      "country": "",
      "created_at": "2021-03-29 16:51:53"
    },
    {
      "sender_id": "ACME Alert",
      "status": "unblock",
      "company": "",
      "usecase": "",
      "country": "",
      "created_at": "2021-03-29 16:51:09"
    }
  ],
  "first_page_url": "https://termii.com/api/sender-id?page=1",
  "from": 1,
  "last_page": 47,
  "last_page_url": "https://termii.com/api/sender-id?page=47",
  "next_page_url": "https://termii.com/api/sender-id?page=2",
  "path": "https://termii.com/api/sender-id",
  "per_page": 10,
  "prev_page_url": "",
  "to": 15,
  "total": 704
}
